…
    ## `summarise()` has grouped output by 'month'. You can override using the
    ## `.groups` argument.

``` r
by_month2 %>%
  arrange(delay_rate) %>%
  head(30)
```

    ## # A tibble: 30 × 5
    ## # Groups:   month [8]
    ##    month  hour number     n delay_rate
    ##    <int> <dbl>  <int> <int>      <dbl>
    ##  1     9     7    420  1895      0.222
    ##  2     9     6    457  2046      0.223
    ##  3     9     9    391  1546      0.253
    ##  4     9     8    661  2469      0.268
    ##  5     9     5     46   164      0.280
    ##  6    10     5     49   170      0.288
    ##  7    10     7    585  1953      0.300
    ##  8     5     6    702  2306      0.304
    ##  9     5     7    577  1887      0.306
    ## 10    10    22     57   184      0.310
    ## # … with 20 more rows
…
    ## `summarise()` has grouped output by 'origin'. You can override using the
    ## `.groups` argument.

``` r
by_origin2 %>%
  arrange(delay_rate) %>%
  head(30)
```

    ## # A tibble: 30 × 5
    ## # Groups:   origin [3]
    ##    origin  hour number     n delay_rate
    ##    <chr>  <dbl>  <int> <int>      <dbl>
    ##  1 LGA        7   2327  7137      0.326
    ##  2 JFK        7   2549  7026      0.363
    ##  3 LGA        6   3131  8558      0.366
    ##  4 LGA        8   2733  7167      0.381
    ##  5 LGA        9   3025  7760      0.390
    ##  6 EWR        5    350   895      0.391
    ##  7 JFK        6   2461  6260      0.393
    ##  8 JFK        5    296   750      0.395
    ##  9 JFK        8   4291 10780      0.398
    ## 10 EWR        6   4508 11133      0.405
    ## # … with 20 more rows
### by Tailnum

``` r
by_tailnum = ques1 %>%
  group_by(tailnum) %>% 
  summarise(number = sum(delay), n = n(), delay_rate = number/n)

med = mean(by_tailnum$n)
by_tailnum %>%
  filter(n > med) %>%
  arrange(delay_rate) %>%
  head(30)
```

    ## # A tibble: 30 × 4
    ##    tailnum number     n delay_rate
    ##    <chr>    <int> <int>      <dbl>
    ##  1 N363NB      22    86      0.256
    ##  2 N961UW      60   226      0.265
    ##  3 N952UW      76   282      0.270
    ##  4 N956UW      63   222      0.284
    ##  5 N963UW      65   219      0.297
    ##  6 N958UW      61   200      0.305
    ##  7 N951UW      81   265      0.306
    ##  8 N945UW      90   285      0.316
    ##  9 N304DQ      43   136      0.316
    ## 10 N967UW      66   208      0.317
    ## # … with 20 more rows
…
    ## `summarise()` has grouped output by 'tailnum'. You can override using the
    ## `.groups` argument.

``` r
by_tailnum2 %>%
  filter(n > 10 & !is.na(tailnum)) %>%
  arrange(delay_rate) %>%
  head(30)
```

    ## # A tibble: 30 × 5
    ## # Groups:   tailnum [30]
    ##    tailnum  hour number     n delay_rate
    ##    <chr>   <dbl>  <int> <int>      <dbl>
    ##  1 N156UW      6      0    11          0
    ##  2 N15985      6      0    12          0
    ##  3 N19130     11      0    11          0
    ##  4 N316NB      6      0    13          0
    ##  5 N369NB      7      0    13          0
    ##  6 N454AA      7      0    13          0
    ##  7 N481UA      6      0    11          0
    ##  8 N613JB     10      0    12          0
    ##  9 N717TW     10      0    15          0
    ## 10 N723UW      6      0    11          0
    ## # … with 20 more rows

### by wind speed

``` r
by_wind_speed = ques1 %>%
  group_by(wind_speed) %>% 
  summarise(number = sum(delay), n = n(), delay_rate = number/n)

by_wind_speed %>%
  arrange(delay_rate) %>%
  head(30)
```

    ## # A tibble: 30 × 4
    ##    wind_speed number     n delay_rate
    ##         <dbl>  <int> <int>      <dbl>
    ##  1       0      5480 11885      0.461
    ##  2       5.75  10679 22189      0.481
    ##  3       3.45   5625 11604      0.485
    ##  4       4.60   8714 17883      0.487
    ##  5      36.8      16    32      0.5  
    ##  6       6.90  13190 26191      0.504
    ##  7       9.21  15530 30405      0.511
    ##  8      11.5   14408 27836      0.518
    ##  9      10.4   14141 27191      0.520
    ## 10       8.06  15143 29021      0.522
    ## # … with 20 more rows
…
    ## `summarise()` has grouped output by 'wind_speed'. You can override using the
    ## `.groups` argument.

``` r
by_wind_speed2 %>%
  filter(!is.na(wind_speed)) %>%
  arrange(delay_rate) %>%
  head(30)
```

    ## # A tibble: 30 × 5
    ## # Groups:   wind_speed [15]
    ##    wind_speed  hour number     n delay_rate
    ##         <dbl> <dbl>  <int> <int>      <dbl>
    ##  1       23.0     5      0     9      0    
    ##  2       31.1    20      0     7      0    
    ##  3       31.1    23      0     2      0    
    ##  4       29.9    15      2    16      0.125
    ##  5       29.9    18      1     8      0.125
    ##  6       25.3     5      1     5      0.2  
    ##  7       26.5     5      1     4      0.25 
    ##  8       17.3     7     83   301      0.276
    ##  9       25.3     7     29   102      0.284
    ## 10       24.2    22      4    14      0.286
    ## # … with 20 more rows
